<?xml version="1.0" encoding="UTF-8" standalone="no"?>
<svg
   xmlns:dc="http://purl.org/dc/elements/1.1/"
   xmlns:cc="http://creativecommons.org/ns#"
   xmlns:rdf="http://www.w3.org/1999/02/22-rdf-syntax-ns#"
   xmlns:svg="http://www.w3.org/2000/svg"
   xmlns="http://www.w3.org/2000/svg"
   xmlns:sodipodi="http://sodipodi.sourceforge.net/DTD/sodipodi-0.dtd"
   xmlns:inkscape="http://www.inkscape.org/namespaces/inkscape"
   viewBox="0 0 421.97201 268.21375"
   height="268.21375"
   width="421.97202"
   xml:space="preserve"
   version="1.1"
   id="svg2"
   inkscape:version="0.92.5 (2060ec1f9f, 2020-04-08)"
   sodipodi:docname="consolegame.svg"><sodipodi:namedview
     pagecolor="#ffffff"
     bordercolor="#666666"
     borderopacity="1"
     objecttolerance="10"
     gridtolerance="10"
     guidetolerance="10"
     inkscape:pageopacity="0"
     inkscape:pageshadow="2"
     inkscape:window-width="3840"
     inkscape:window-height="2065"
     id="namedview3886"
     showgrid="false"
     inkscape:zoom="2.1132733"
     inkscape:cx="-310.31758"
     inkscape:cy="73.434845"
     inkscape:window-x="0"
     inkscape:window-y="0"
     inkscape:window-maximized="1"
     inkscape:current-layer="svg2"
     fit-margin-top="0"
     fit-margin-left="0"
     fit-margin-right="0"
     fit-margin-bottom="0" /><metadata
     id="metadata8"><rdf:RDF><cc:Work
         rdf:about=""><dc:format>image/svg+xml</dc:format><dc:type
           rdf:resource="http://purl.org/dc/dcmitype/StillImage" /><dc:title /></cc:Work></rdf:RDF></metadata><defs
     id="defs6"><clipPath
       id="clipPath16"
       clipPathUnits="userSpaceOnUse"><path
         id="path18"
         d="m 0,214.571 200.129,0 L 200.129,0 0,0 0,214.571 Z"
         inkscape:connector-curvature="0" /></clipPath><linearGradient
       id="linearGradient44"
       spreadMethod="pad"
       gradientTransform="matrix(0,89.952156,89.952156,0,100.25288,103.88564)"
       gradientUnits="userSpaceOnUse"
       y2="0"
       x2="1"
       y1="0"
       x1="0"><stop
         id="stop46"
         offset="0"
         style="stop-opacity:1;stop-color:#fff424" /><stop
         id="stop48"
         offset="0.1077829"
         style="stop-opacity:1;stop-color:#fac308" /><stop
         id="stop50"
         offset="0.227423"
         style="stop-opacity:1;stop-color:#fac308" /><stop
         id="stop52"
         offset="0.497416"
         style="stop-opacity:1;stop-color:#f3812f" /><stop
         id="stop54"
         offset="0.636303"
         style="stop-opacity:1;stop-color:#ee5233" /><stop
         id="stop56"
         offset="0.855615"
         style="stop-opacity:1;stop-color:#ea2c35" /><stop
         id="stop58"
         offset="1"
         style="stop-opacity:1;stop-color:#ea2c35" /></linearGradient><clipPath
       id="clipPath66"
       clipPathUnits="userSpaceOnUse"><path
         id="path68"
         d="m 0,214.571 200.129,0 L 200.129,0 0,0 0,214.571 Z"
         inkscape:connector-curvature="0" /></clipPath><clipPath
       clipPathUnits="userSpaceOnUse"
       id="clipPath16-8"><path
         d="m 0,172.02 172.02,0 L 172.02,0 0,0 0,172.02 Z"
         id="path18-1"
         inkscape:connector-curvature="0" /></clipPath><pattern
       id="EMFhbasepattern"
       patternUnits="userSpaceOnUse"
       width="6"
       height="6"
       x="0"
       y="0" /></defs><g
     transform="matrix(1.25,0,0,-1.25,0,268.21375)"
     id="g10"><g
       id="g12"><g
         clip-path="url(#clipPath16)"
         id="g14"><g
           transform="translate(154.5794,74.8154)"
           id="g20"><path
             id="path22"
             style="fill:#cac2b5;fill-opacity:1;fill-rule:nonzero;stroke:none"
             d="m 0,0 -109.801,0 c -1.559,0 -2.835,1.276 -2.835,2.835 l 0,9.003 c 0,1.559 1.276,2.835 2.835,2.835 L 0,14.673 c 1.559,0 2.835,-1.276 2.835,-2.835 l 0,-9.003 C 2.835,1.276 1.559,0 0,0"
             inkscape:connector-curvature="0" /></g><g
           transform="translate(181.2666,83.152)"
           id="g24"><path
             id="path26"
             style="fill:#efede1;fill-opacity:1;fill-rule:nonzero;stroke:none"
             d="m 0,0 -162.114,0 c -1.559,0 -2.834,1.276 -2.834,2.835 l 0,125.75 c 0,1.559 1.275,2.834 2.834,2.834 l 162.114,0 c 1.559,0 2.835,-1.275 2.835,-2.834 l 0,-125.75 C 2.835,1.276 1.559,0 0,0"
             inkscape:connector-curvature="0" /></g><g
           transform="translate(173.1577,95.2732)"
           id="g28"><path
             id="path30"
             style="fill:#d8d5cb;fill-opacity:1;fill-rule:nonzero;stroke:none"
             d="m 0,0 -145.81,0 c -0.779,0 -1.417,0.638 -1.417,1.417 l 0,104.343 c 0,0.779 0.638,1.417 1.417,1.417 l 145.81,0 c 0.78,0 1.417,-0.638 1.417,-1.417 l 0,-104.343 C 1.417,0.638 0.78,0 0,0"
             inkscape:connector-curvature="0" /></g></g></g><g
       id="g32"><g
         id="g34"><g
           id="g40"><g
             id="g42" /></g></g></g><g
       id="g62"><g
         clip-path="url(#clipPath66)"
         id="g64"><g
           transform="translate(153.0653,103.8857)"
           id="g70"><path
             id="path72"
             style="fill:none;stroke:#4f4c4d;stroke-width:0.25;stroke-linecap:butt;stroke-linejoin:miter;stroke-miterlimit:10;stroke-dasharray:none;stroke-opacity:1"
             d="m 0,0 -105.625,0 c -7.795,0 -14.173,6.378 -14.173,14.173 l 0,61.606 c 0,7.795 6.378,14.173 14.173,14.173 L 0,89.952 c 7.795,0 14.173,-6.378 14.173,-14.173 l 0,-61.606 C 14.173,6.378 7.795,0 0,0 Z"
             inkscape:connector-curvature="0" /></g><g
           transform="translate(141.4103,65.884)"
           id="g74"><path
             id="path76"
             style="fill:#e4dccb;fill-opacity:1;fill-rule:nonzero;stroke:none"
             d="m 0,0 -83.463,0 4.526,8.931 74.458,0 L 0,0 Z"
             inkscape:connector-curvature="0" /></g><path
           id="path78"
           style="fill:#efede0;fill-opacity:1;fill-rule:nonzero;stroke:none"
           d="m 159.509,57.463 -117.565,0 0,8.421 117.565,0 0,-8.421 z"
           inkscape:connector-curvature="0" /><g
           transform="translate(191.6249,0)"
           id="g80"><path
             id="path82"
             style="fill:#e4dccb;fill-opacity:1;fill-rule:nonzero;stroke:none"
             d="m 0,0 -183.121,0 c -4.677,0 -8.504,3.827 -8.504,8.504 l 0,40.455 c 0,4.677 3.827,8.504 8.504,8.504 L 0,57.463 c 4.677,0 8.504,-3.827 8.504,-8.504 l 0,-40.455 C 8.504,3.827 4.677,0 0,0"
             inkscape:connector-curvature="0" /></g><g
           transform="translate(14.1035,15.3564)"
           id="g84"><path
             id="path86"
             style="fill:#c0ba9f;fill-opacity:1;fill-rule:nonzero;stroke:none"
             d="m 0,0 0,0 c -1.218,0 -2.215,0.997 -2.215,2.215 l 0,22.32 c 0,1.218 0.997,2.215 2.215,2.215 l 0,0 c 1.218,0 2.215,-0.997 2.215,-2.215 l 0,-22.32 C 2.215,0.997 1.218,0 0,0"
             inkscape:connector-curvature="0" /></g><g
           transform="translate(22.2288,15.3564)"
           id="g88"><path
             id="path90"
             style="fill:#c0ba9f;fill-opacity:1;fill-rule:nonzero;stroke:none"
             d="m 0,0 0,0 c -1.218,0 -2.215,0.997 -2.215,2.215 l 0,22.32 c 0,1.218 0.997,2.215 2.215,2.215 l 0,0 c 1.218,0 2.215,-0.997 2.215,-2.215 l 0,-22.32 C 2.215,0.997 1.218,0 0,0"
             inkscape:connector-curvature="0" /></g><g
           transform="translate(30.2047,15.3564)"
           id="g92"><path
             id="path94"
             style="fill:#c0ba9f;fill-opacity:1;fill-rule:nonzero;stroke:none"
             d="m 0,0 0,0 c -1.218,0 -2.215,0.997 -2.215,2.215 l 0,22.32 c 0,1.218 0.997,2.215 2.215,2.215 l 0,0 c 1.218,0 2.215,-0.997 2.215,-2.215 l 0,-22.32 C 2.215,0.997 1.218,0 0,0"
             inkscape:connector-curvature="0" /></g><g
           transform="translate(38.3299,15.3564)"
           id="g96"><path
             id="path98"
             style="fill:#c0ba9f;fill-opacity:1;fill-rule:nonzero;stroke:none"
             d="m 0,0 0,0 c -1.218,0 -2.215,0.997 -2.215,2.215 l 0,22.32 c 0,1.218 0.997,2.215 2.215,2.215 l 0,0 c 1.218,0 2.215,-0.997 2.215,-2.215 l 0,-22.32 C 2.215,0.997 1.218,0 0,0"
             inkscape:connector-curvature="0" /></g><g
           transform="translate(45.9274,15.3564)"
           id="g100"><path
             id="path102"
             style="fill:#c0ba9f;fill-opacity:1;fill-rule:nonzero;stroke:none"
             d="m 0,0 0,0 c -1.218,0 -2.215,0.997 -2.215,2.215 l 0,22.32 c 0,1.218 0.997,2.215 2.215,2.215 l 0,0 c 1.218,0 2.215,-0.997 2.215,-2.215 l 0,-22.32 C 2.215,0.997 1.218,0 0,0"
             inkscape:connector-curvature="0" /></g><g
           transform="translate(54.0527,15.3564)"
           id="g104"><path
             id="path106"
             style="fill:#c0ba9f;fill-opacity:1;fill-rule:nonzero;stroke:none"
             d="m 0,0 0,0 c -1.218,0 -2.215,0.997 -2.215,2.215 l 0,22.32 c 0,1.218 0.997,2.215 2.215,2.215 l 0,0 c 1.218,0 2.215,-0.997 2.215,-2.215 l 0,-22.32 C 2.215,0.997 1.218,0 0,0"
             inkscape:connector-curvature="0" /></g><g
           transform="translate(188.5454,8.1831)"
           id="g108"><path
             id="path110"
             style="fill:#666870;fill-opacity:1;fill-rule:nonzero;stroke:none"
             d="m 0,0 -118.587,0 c -1.559,0 -2.835,1.276 -2.835,2.835 l 0,35.427 c 0,1.559 1.276,2.835 2.835,2.835 L 0,41.097 c 1.559,0 2.835,-1.276 2.835,-2.835 l 0,-35.427 C 2.835,1.276 1.559,0 0,0"
             inkscape:connector-curvature="0" /></g><g
           transform="translate(188.5454,8.1831)"
           id="g112"><path
             id="path114"
             style="fill:none;stroke:#4f4c4d;stroke-width:0.5;stroke-linecap:butt;stroke-linejoin:miter;stroke-miterlimit:10;stroke-dasharray:none;stroke-opacity:1"
             d="m 0,0 -118.587,0 c -1.559,0 -2.835,1.276 -2.835,2.835 l 0,35.427 c 0,1.559 1.276,2.835 2.835,2.835 L 0,41.097 c 1.559,0 2.835,-1.276 2.835,-2.835 l 0,-35.427 C 2.835,1.276 1.559,0 0,0 Z"
             inkscape:connector-curvature="0" /></g><g
           transform="translate(122.3736,25.8304)"
           id="g116"><path
             id="path118"
             style="fill:#201d1d;fill-opacity:1;fill-rule:nonzero;stroke:none"
             d="m 0,0 -48.415,0 c -0.78,0 -1.417,0.638 -1.417,1.417 l 0,2.968 c 0,0.779 0.637,1.417 1.417,1.417 L 0,5.802 c 0.78,0 1.417,-0.638 1.417,-1.417 l 0,-2.968 C 1.417,0.638 0.78,0 0,0"
             inkscape:connector-curvature="0" /></g><path
           id="path120"
           style="fill:#201d1d;fill-opacity:1;fill-rule:nonzero;stroke:none"
           d="m 101.253,22.204 -13.054,0 0,13.054 13.054,0 0,-13.054 z"
           inkscape:connector-curvature="0" /><path
           id="path122"
           style="fill:#525458;fill-opacity:1;fill-rule:nonzero;stroke:none"
           d="m 84.562,22.204 -4.636,0 0,13.054 4.636,0 0,-13.054 z"
           inkscape:connector-curvature="0" /><g
           transform="translate(179.0843,25.8304)"
           id="g124"><path
             id="path126"
             style="fill:#201d1d;fill-opacity:1;fill-rule:nonzero;stroke:none"
             d="m 0,0 -48.415,0 c -0.78,0 -1.417,0.638 -1.417,1.417 l 0,2.968 c 0,0.779 0.637,1.417 1.417,1.417 L 0,5.802 c 0.78,0 1.417,-0.638 1.417,-1.417 l 0,-2.968 C 1.417,0.638 0.78,0 0,0"
             inkscape:connector-curvature="0" /></g><g
           transform="translate(186.9229,25.6823)"
           id="g128"><path
             id="path130"
             style="fill:#525458;fill-opacity:1;fill-rule:nonzero;stroke:none"
             d="m 0,0 -3.115,0 c -0.78,0 -1.418,0.638 -1.418,1.417 l 0,3.116 c 0,0.779 0.638,1.417 1.418,1.417 L 0,5.95 c 0.78,0 1.417,-0.638 1.417,-1.417 l 0,-3.116 C 1.417,0.638 0.78,0 0,0"
             inkscape:connector-curvature="0" /></g><g
           transform="translate(185.3652,31.7064)"
           id="g132"><path
             id="path134"
             style="fill:#201d1d;fill-opacity:1;fill-rule:nonzero;stroke:none"
             d="m 0,0 1.558,0 c 0.779,0 1.417,-0.638 1.417,-1.417 l 0,-3.116 C 2.975,-5.312 2.337,-5.95 1.558,-5.95 L 0,-6.024"
             inkscape:connector-curvature="0" /></g><path
           id="path136"
           style="fill:#cac2b5;fill-opacity:1;fill-rule:nonzero;stroke:none"
           d="m 188.34,10.638 -5.95,0 0,5.95 5.95,0 0,-5.95 z"
           inkscape:connector-curvature="0" /><path
           id="path138"
           style="fill:#1f70c1;fill-opacity:1;fill-rule:nonzero;stroke:none"
           d="m 187.76,11.323 -1.815,0 0,1.815 1.815,0 0,-1.815 z"
           inkscape:connector-curvature="0" /><g
           transform="translate(132.3629,179.347)"
           id="g140" /><g
           transform="translate(108.7874,167.3632)"
           id="g144" /><g
           transform="translate(69.5992,167.0285)"
           id="g148" /><g
           transform="translate(78.3179,168.7893)"
           id="g152" /><g
           transform="translate(86.0433,166.3922)"
           id="g156" /><g
           transform="translate(107.5141,166.7087)"
           id="g160" /><g
           transform="translate(97.1408,169.1656)"
           id="g164" /><g
           transform="translate(122.6267,172.8758)"
           id="g168" /><g
           transform="translate(115.2826,181.509)"
           id="g172" /><g
           transform="translate(132.0248,112.6395)"
           id="g176" /><g
           transform="translate(160.0988,154.7744)"
           id="g180" /><g
           transform="translate(160.0988,147.9837)"
           id="g184" /><g
           transform="translate(160.0988,138.6012)"
           id="g188" /><g
           transform="translate(160.0988,132.3502)"
           id="g192" /><g
           transform="translate(160.0988,125.9397)"
           id="g196" /><g
           transform="translate(160.0988,116.9105)"
           id="g200" /><g
           transform="translate(130.8616,146.646)"
           id="g208" /></g></g></g><path
     style="fill:#ffffff"
     d="m 57.215774,137.87469 c -7.059735,-0.85426 -12.960248,-6.11086 -14.760477,-13.14969 -0.566579,-2.21531 -0.58274,-3.40231 -0.57776,-42.434411 0.0057,-44.578389 -0.08783,-42.382845 1.980615,-46.499246 1.467325,-2.920116 4.47189,-5.974163 7.336002,-7.456819 4.151437,-2.149061 -1.965107,-1.985633 74.169776,-1.981747 57.25568,0.0029 68.86641,0.07063 70.13722,0.408988 6.15078,1.637672 10.92981,6.378756 12.69221,12.59142 0.50904,1.794397 0.5381,4.104203 0.5381,42.763304 0,38.113351 -0.035,40.993191 -0.51976,42.747681 -1.67925,6.07797 -6.34147,10.79622 -12.49029,12.64041 -1.64461,0.49326 -5.55547,0.52506 -69.16545,0.5625 -37.082246,0.0218 -68.28533,-0.0648 -69.340186,-0.19239 l 0,0 z"
     id="path3272"
     inkscape:connector-curvature="0" /><path
     d="m 51.495219,52.685581 0,4.040345 28.733657,0 0,-4.040345 -28.733657,0 z m 32.804468,0 0,4.040345 40.946863,0 c 0,0 -4.18277,-4.040345 -9.72214,-4.040345 l -31.224723,0 z m 48.979123,0 0,4.040345 24.77246,0 -1.47038,-4.040345 -23.30208,0 z m 42.53284,0 -1.47011,4.040345 24.54697,0 0,-4.040345 -23.07686,0 z m -124.316431,7.8565 0,4.040345 28.733657,0 0,-4.040345 -28.733657,0 z m 32.804468,0.0057 0,4.034096 45.698573,0 c 0,0 -0.53431,-3.109219 -1.46465,-4.034096 l -44.233923,0 z m 48.979123,0 0,4.034096 27.4885,0 -1.36153,-4.034096 -26.12697,0 z m 39.59183,0 -1.36101,4.034096 27.3781,0 0,-4.034068 -26.01709,0 z m -113.118192,7.8508 0,4.045032 12.443908,0 0,-4.045032 -12.443908,0 z m 32.804728,0 0,4.045032 12.443644,0 0,-4.045032 -12.443644,0 z m 24.547494,0 0,4.045032 12.44365,0 c 0,0 0.78999,-2.136432 0.78999,-4.045032 l -13.23364,0 z m 24.43163,0 0,4.045032 22.06215,0 -1.47064,-4.045032 -20.59151,0 z m 28.62429,0 -1.47637,4.045032 22.17151,0 0,-4.045032 -20.69514,0 z m -110.408142,7.86249 0,4.040345 12.443908,0 0,-4.040345 -12.443908,0 z m 32.804728,0 0,4.040345 31.784024,0 c 0,0 2.65876,-2.0729 3.50604,-4.040345 l -35.290064,0 z m 48.979124,0 0,4.040345 12.4439,0 0,-2.249438 0.78974,2.249178 22.79461,0 0.8478,-2.249178 0,2.249178 12.44338,0 0,-4.040085 -23.35911,0 -1.23994,3.422459 -1.2454,-3.422459 -23.47498,0 z m -81.783852,7.8565 0,4.040345 12.443908,0 0,-4.040345 -12.443908,0 z m 32.804728,0 0,4.040345 35.290324,0 c -0.8478,-1.960414 -3.50604,-4.040345 -3.50604,-4.040345 l -31.784284,0 z m 48.979124,0 0,4.040345 12.4439,0 0,-4.040345 -12.4439,0 z m 14.70454,0 1.50474,4.040345 17.09172,0 1.43002,-4.040345 -20.02648,0 z m 22.17151,0 0,4.040345 12.44338,0 0,-4.040345 -12.44338,0 z m -118.659902,7.856501 0,4.039824 12.443908,0 0,-4.039824 -12.443908,0 z m 32.804728,0 0,4.039824 12.443644,0 0,-4.039824 -12.443644,0 z m 24.547494,0 0,4.039824 13.23364,0 c 0,-1.90652 -0.78999,-4.039824 -0.78999,-4.039824 l -12.44365,0 z m 24.43163,0 0,4.039824 12.4439,0 0,-4.039824 -12.4439,0 z m 17.52994,0 1.45866,4.039824 11.45836,0 1.46986,-4.039824 -14.38688,0 z m 19.34611,0 0,4.039824 12.44338,0 0,-4.039824 -12.44338,0 z m -126.692421,7.857024 0,4.045554 28.733917,0 0,-4.045554 -28.733917,0 z m 32.579758,0 0,4.045554 44.233923,0 c 0.93034,-0.92722 1.46465,-4.045554 1.46465,-4.045554 l -45.698573,0 z m 49.204613,0 0,4.045554 20.47668,0 0,-4.045554 -20.47668,0 z m 28.39307,0 1.49928,4.045554 5.82969,0 1.4071,-4.045554 -8.73607,0 z m 16.51498,0 0,4.045554 20.70087,0 0,-4.045554 -20.70087,0 z m -126.692421,7.861974 0,4.04034 28.733917,0 0,-4.04034 -28.733917,0 z m 32.579758,0 0,4.03409 31.224723,0 c 5.53963,0 9.72214,-4.03409 9.72214,-4.03409 l -40.946863,0 z m 49.204613,0 0,4.04034 20.47668,0 0,-4.04034 -20.47668,0 z m 31.23592,0 1.44122,4.02915 0.24814,0.005 1.46465,-4.0341 -3.15401,-5.2e-4 0,0 z m 13.67213,0 0,4.04034 20.70087,0 0,-4.04034 -20.70087,0 z"
     id="path3488"
     inkscape:connector-curvature="0"
     style="fill:#1f70c1" /><g
     transform="matrix(0.61805316,0,0,0.61805316,296.96809,139.99256)"
     id="g882"><g
       id="layer1-7"
       transform="translate(0,-844.36216)"><path
         d="m 181.76913,1030.0746 h 11.28375 v 7.3612 H 181.76913 Z M 2.1478797,845.89083 l -1.20499996,1.1075 -0.3875,1.39875 0.19375,201.53002 0.46624996,1.0325 1.03,0.6587 196.1087503,0.1738 1.305,-0.7338 0.65875,-1.225 -0.2725,-179.79497 h -1.39875 v -8.19875 l 1.10625,0.2725 v -2.7975 l -15.095,-13.25 -2.99125,-0.175 -0.9325,0.835 h -16.04625 l -1.39875,1.39875 -3.26375,0.0975 H 52.23163 l 10e-4,-0.9325 -26.5,-0.195 0.0962,-1.03 -23.6837503,-0.17375 0.002,10e-4 z"
         style="fill:#3b3b3b;fill-opacity:1;fill-rule:nonzero;stroke:none"
         id="path986-5"
         inkscape:connector-curvature="0" /><g
         id="g988-3"
         transform="matrix(1.25,0,0,-1.25,0.56249974,848.4047)"><path
           d="m 0,0 0.149,-161.224 0.373,-0.821 0.821,-0.522 156.897,-0.149 1.044,0.597 0.523,0.969 -0.224,143.841 h -1.119 v 6.566 l 0.895,-0.224 v 2.238 L 147.273,1.865 144.885,2.014 144.139,1.343 H 131.307 L 130.188,0.224 127.577,0.149 H 41.332 v 0.746 l -21.188,0.15 0.074,0.82 -18.95,0.149 -0.97,-0.895 z"
           style="fill:none;stroke:#424242;stroke-width:0.89999998;stroke-linecap:round;stroke-linejoin:round;stroke-miterlimit:10;stroke-dasharray:none;stroke-opacity:1"
           id="path990-5"
           inkscape:connector-curvature="0" /></g><g
         id="g992-6"
         transform="matrix(1.25,0,0,-1.25,26.022,846.72595)"><path
           d="m 0,0 v -52.896 l 0.373,-0.671 0.522,-0.224 h 23.128"
           style="fill:none;stroke:#858586;stroke-width:0.60000002;stroke-linecap:round;stroke-linejoin:round;stroke-miterlimit:10;stroke-dasharray:none;stroke-opacity:1"
           id="path994-2"
           inkscape:connector-curvature="0" /></g><path
         d="M 6.9978797,1037.5321 H 18.28163 v -7.3675 H 6.9978797 Z"
         style="fill:#292929;fill-opacity:1;fill-rule:nonzero;stroke:none"
         id="path996-9"
         inkscape:connector-curvature="0" /><g
         id="g998-1"
         transform="matrix(1.25,0,0,-1.25,176.16713,1046.6958)"><path
           d="m 0,0 v 87.757 l -0.895,1.044 -119.37,-0.149 -1.045,-0.746 V -0.112 Z"
           style="fill:#ffffff;fill-opacity:1;fill-rule:nonzero;stroke:none"
           id="path1000-2"
           inkscape:connector-curvature="0" /></g><path
         d="m 113.86288,856.71208 h 28.8325 v 54.09 h -28.8325 z m -61.57,-11.055 v 67.1275 l 1.94375,1.49625 h 103.18625 l 1.71,-1.885 v -66.735 H 52.29663 l -0.004,-0.004 z"
         style="fill:#b2b2b2;fill-opacity:1;fill-rule:nonzero;stroke:none"
         id="path1002-7"
         inkscape:connector-curvature="0" /></g><path
       style="fill:#1f70c1;stroke-width:0.89867973"
       inkscape:connector-curvature="0"
       id="path3488-0"
       d="m 34.006605,118.58017 v 3.63099 h 25.822354 v -3.63099 z m 29.480709,0 v 3.63099 h 36.798126 c 0,0 -3.758983,-3.63099 -8.737101,-3.63099 z m 44.016546,0 v 3.63099 h 22.26252 l -1.32142,-3.63099 z m 38.2234,0 -1.32117,3.63099 h 22.05988 v -3.63099 z m -111.720655,7.06049 v 3.63098 h 25.822354 v -3.63098 z m 29.480709,0.005 v 3.62538 H 104.5557 c 0,0 -0.48017,-2.7942 -1.31624,-3.62538 z m 44.016546,0 v 3.62538 h 24.70336 l -1.22358,-3.62538 z m 35.58037,0 -1.2231,3.62538 h 24.60414 v -3.62535 h -23.38104 z m -101.65702,7.05537 v 3.63518 h 11.183086 v -3.63518 z m 29.480941,0 v 3.63518 h 11.182851 v -3.63518 z m 22.060335,0 v 3.63518 h 11.182874 c 0,0 0.70993,-1.91997 0.70993,-3.63518 z m 21.956214,0 v 3.63518 h 19.8268 l -1.32162,-3.63518 z m 25.72408,0 -1.32678,3.63518 h 19.92507 v -3.63518 z m -99.22157,7.06586 v 3.63097 h 11.183086 v -3.63097 z m 29.480941,0 v 3.63097 h 28.563665 c 0,0 2.389384,-1.86286 3.150794,-3.63097 z m 44.016549,0 v 3.63097 h 11.18308 v -2.02152 l 0.70972,2.02129 h 20.48505 l 0.76191,-2.02129 v 2.02129 h 11.18261 v -3.63074 h -20.99235 l -1.11432,3.07568 -1.11922,-3.07568 z m -73.49749,7.06047 v 3.63099 h 11.183086 v -3.63099 z m 29.480941,0 v 3.63099 h 31.714699 c -0.76189,-1.76179 -3.150814,-3.63099 -3.150814,-3.63099 z m 44.016549,0 v 3.63099 h 11.18308 v -3.63099 z m 13.21467,0 1.35227,3.63099 h 15.35999 l 1.28513,-3.63099 z m 19.92509,0 v 3.63099 h 11.18261 v -3.63099 z m -106.63725,7.06048 v 3.6305 h 11.183086 v -3.6305 z m 29.480941,0 v 3.6305 h 11.182851 v -3.6305 z m 22.060335,0 v 3.6305 h 11.892804 c 0,-1.71335 -0.70993,-3.6305 -0.70993,-3.6305 z m 21.956214,0 v 3.6305 h 11.18308 v -3.6305 z m 15.75381,0 1.31086,3.6305 h 10.2974 l 1.32093,-3.6305 z m 17.38595,0 v 3.6305 h 11.18261 v -3.6305 z m -113.855912,7.0609 v 3.63566 h 25.822587 v -3.63566 z m 29.278766,0 v 3.63566 h 39.752146 c 0.83607,-0.83328 1.31624,-3.63566 1.31624,-3.63566 z m 44.219196,0 v 3.63566 h 18.40196 v -3.63566 z m 25.51628,0 1.34736,3.63566 h 5.23903 l 1.26452,-3.63566 z m 14.84167,0 v 3.63566 h 18.60345 v -3.63566 z m -113.855912,7.06552 v 3.63098 h 25.822587 v -3.63098 z m 29.278766,0 v 3.62535 h 28.061025 c 4.978352,0 8.737101,-3.62535 8.737101,-3.62535 z m 44.219196,0 v 3.63098 h 18.40196 v -3.63098 z m 28.07107,0 1.29521,3.62091 0.223,0.004 1.31626,-3.62536 -2.83447,-4.6e-4 v 0 z m 12.28688,0 v 3.63098 h 18.60345 v -3.63098 z" /></g></svg>